#FIG 3.2
Landscape
Center
Metric
A4      
50.00
Single
-2
1200 2
2 3 0 1 0 31 50 0 20 0.000 0 0 -1 0 0 28
	 8010 5400 7920 5130 7875 5535 7695 5355 7695 5535 7425 5580
	 7650 5760 7335 6120 7515 6075 7695 6165 7875 5985 8055 6165
	 8280 5895 8505 6210 8820 5850 9090 6075 9180 5805 9720 5670
	 9270 5625 9315 5175 9135 5355 9045 5085 8775 5445 8595 5040
	 8370 5355 8145 5130 8010 5355 8010 5400
4 0 1 50 0 19 27 0.0000 4 315 990 7920 5805 New!\001
